{"failedCount":0,"prefixedPath":"classpath:apitest\/getRequest.feature","packageQualifiedName":"apitest.getRequest","loopIndex":-1,"relativePath":"apitest\/getRequest.feature","scenarioResults":[{"sectionIndex":0,"stepResults":[{"result":{"nanos":141620,"startTime":1703081620956,"endTime":1703081620956,"millis":0.14162,"status":"passed"},"step":{"background":true,"line":4,"prefix":"Given","index":0,"text":"url baseURL"},"stepLog":"21:13:40.955 karate.env system property was: null \n"},{"result":{"nanos":1222265,"startTime":1703081620956,"endTime":1703081620957,"millis":1.222265,"status":"passed"},"step":{"background":true,"line":5,"prefix":"And","index":1,"text":"print \"========= Ini test Get Data ========\""},"stepLog":"21:13:40.957 [print] ========= Ini test Get Data ======== \n"},{"result":{"nanos":18794454,"startTime":1703081620957,"endTime":1703081620976,"millis":18.794454,"status":"passed"},"step":{"comments":["# define location schema"],"background":true,"line":7,"prefix":"*","index":2,"text":"string jsonSchemaExpected = read('file:src\/test\/java\/apitest\/schema\/getschema.json')"}},{"result":{"nanos":541876,"startTime":1703081620976,"endTime":1703081620977,"millis":0.541876,"status":"passed"},"step":{"line":11,"prefix":"When","index":0,"text":"path '\/api\/users'"}},{"result":{"nanos":638346,"startTime":1703081620977,"endTime":1703081620978,"millis":0.638346,"status":"passed"},"step":{"line":12,"prefix":"And","index":1,"text":"param page = 1"}},{"result":{"nanos":181184324,"startTime":1703081620978,"endTime":1703081621159,"millis":181.184324,"status":"passed"},"step":{"line":13,"prefix":"And","index":2,"text":"method get"}},{"result":{"nanos":14625,"startTime":1703081621159,"endTime":1703081621159,"millis":0.014625,"status":"passed"},"step":{"line":14,"prefix":"Then","index":3,"text":"status 200"}},{"result":{"nanos":3403750,"startTime":1703081621159,"endTime":1703081621162,"millis":3.40375,"status":"passed"},"step":{"line":15,"prefix":"And","index":4,"text":"print response"},"stepLog":"21:13:41.162 [print] {\n  \"page\": 1,\n  \"per_page\": 6,\n  \"total\": 12,\n  \"total_pages\": 2,\n  \"data\": [\n    {\n      \"id\": 1,\n      \"email\": \"george.bluth@reqres.in\",\n      \"first_name\": \"George\",\n      \"last_name\": \"Bluth\",\n      \"avatar\": \"https:\/\/reqres.in\/img\/faces\/1-image.jpg\"\n    },\n    {\n      \"id\": 2,\n      \"email\": \"janet.weaver@reqres.in\",\n      \"first_name\": \"Janet\",\n      \"last_name\": \"Weaver\",\n      \"avatar\": \"https:\/\/reqres.in\/img\/faces\/2-image.jpg\"\n    },\n    {\n      \"id\": 3,\n      \"email\": \"emma.wong@reqres.in\",\n      \"first_name\": \"Emma\",\n      \"last_name\": \"Wong\",\n      \"avatar\": \"https:\/\/reqres.in\/img\/faces\/3-image.jpg\"\n    },\n    {\n      \"id\": 4,\n      \"email\": \"eve.holt@reqres.in\",\n      \"first_name\": \"Eve\",\n      \"last_name\": \"Holt\",\n      \"avatar\": \"https:\/\/reqres.in\/img\/faces\/4-image.jpg\"\n    },\n    {\n      \"id\": 5,\n      \"email\": \"charles.morris@reqres.in\",\n      \"first_name\": \"Charles\",\n      \"last_name\": \"Morris\",\n      \"avatar\": \"https:\/\/reqres.in\/img\/faces\/5-image.jpg\"\n    },\n    {\n      \"id\": 6,\n      \"email\": \"tracey.ramos@reqres.in\",\n      \"first_name\": \"Tracey\",\n      \"last_name\": \"Ramos\",\n      \"avatar\": \"https:\/\/reqres.in\/img\/faces\/6-image.jpg\"\n    }\n  ],\n  \"support\": {\n    \"url\": \"https:\/\/reqres.in\/#support-heading\",\n    \"text\": \"To keep ReqRes free, contributions towards server costs are appreciated!\"\n  }\n}\n \n"}],"executorName":"main","line":10,"name":"User get list users page 1","description":"","durationMillis":205.94126,"startTime":1703081620954,"failed":false,"refId":"[1:10]","endTime":1703081621163,"exampleIndex":-1},{"sectionIndex":1,"stepResults":[{"result":{"nanos":479200,"startTime":1703081621179,"endTime":1703081621179,"millis":0.4792,"status":"passed"},"step":{"background":true,"line":4,"prefix":"Given","index":0,"text":"url baseURL"},"stepLog":"21:13:41.176 karate.env system property was: null \n"},{"result":{"nanos":1386902,"startTime":1703081621180,"endTime":1703081621181,"millis":1.386902,"status":"passed"},"step":{"background":true,"line":5,"prefix":"And","index":1,"text":"print \"========= Ini test Get Data ========\""},"stepLog":"21:13:41.181 [print] ========= Ini test Get Data ======== \n"},{"result":{"nanos":3258169,"startTime":1703081621181,"endTime":1703081621184,"millis":3.258169,"status":"passed"},"step":{"comments":["# define location schema"],"background":true,"line":7,"prefix":"*","index":2,"text":"string jsonSchemaExpected = read('file:src\/test\/java\/apitest\/schema\/getschema.json')"}},{"result":{"nanos":1533961,"startTime":1703081621185,"endTime":1703081621187,"millis":1.533961,"status":"passed"},"step":{"comments":["# declare variable userid"],"line":20,"prefix":"*","index":0,"text":"def userid = 2"}},{"result":{"nanos":1278923,"startTime":1703081621186,"endTime":1703081621187,"millis":1.278923,"status":"passed"},"step":{"comments":["# path"],"line":23,"prefix":"When","index":1,"text":"path '\/api\/users\/'+userid"}},{"result":{"nanos":330492812,"startTime":1703081621188,"endTime":1703081621518,"millis":330.492812,"status":"passed"},"step":{"comments":["# http request method"],"line":25,"prefix":"And","index":2,"text":"method get"}},{"result":{"nanos":13661,"startTime":1703081621519,"endTime":1703081621519,"millis":0.013661,"status":"passed"},"step":{"comments":["# get status"],"line":27,"prefix":"Then","index":3,"text":"status 200"}},{"result":{"nanos":1153475,"startTime":1703081621519,"endTime":1703081621520,"millis":1.153475,"status":"passed"},"step":{"comments":["# Assertion body response : id"],"line":29,"prefix":"And","index":4,"text":"print response"},"stepLog":"21:13:41.520 [print] {\n  \"data\": {\n    \"id\": 2,\n    \"email\": \"janet.weaver@reqres.in\",\n    \"first_name\": \"Janet\",\n    \"last_name\": \"Weaver\",\n    \"avatar\": \"https:\/\/reqres.in\/img\/faces\/2-image.jpg\"\n  },\n  \"support\": {\n    \"url\": \"https:\/\/reqres.in\/#support-heading\",\n    \"text\": \"To keep ReqRes free, contributions towards server costs are appreciated!\"\n  }\n}\n \n"},{"result":{"nanos":954333,"startTime":1703081621520,"endTime":1703081621521,"millis":0.954333,"status":"passed"},"step":{"line":30,"prefix":"And","index":5,"text":"assert response.data.id == userid"}},{"result":{"nanos":848439,"startTime":1703081621521,"endTime":1703081621522,"millis":0.848439,"status":"passed"},"step":{"line":31,"prefix":"And","index":6,"text":"assert response.data.first_name == 'Janet'"}},{"result":{"nanos":854723,"startTime":1703081621522,"endTime":1703081621523,"millis":0.854723,"status":"passed"},"step":{"line":32,"prefix":"And","index":7,"text":"print \"awikwok\""},"stepLog":"21:13:41.523 [print] awikwok \n"},{"result":{"nanos":848704,"startTime":1703081621523,"endTime":1703081621524,"millis":0.848704,"status":"passed"},"step":{"line":33,"prefix":"And","index":8,"text":"print response.data.first_name"},"stepLog":"21:13:41.524 [print] Janet \n"}],"line":18,"description":"","durationMillis":343.103302,"failed":false,"tags":["test","get"],"executorName":"main","name":"User get user data using id","startTime":1703081621174,"refId":"[2:18]","endTime":1703081621524,"exampleIndex":-1}],"callDepth":0,"name":"Test get request","description":"","resultDate":"2023-12-20 09:13:41 PM","durationMillis":549.044562,"passedCount":2}