{"failedCount":1,"prefixedPath":"classpath:apitest\/getRequest.feature","packageQualifiedName":"apitest.getRequest","loopIndex":-1,"relativePath":"apitest\/getRequest.feature","scenarioResults":[{"sectionIndex":0,"stepResults":[{"result":{"nanos":150069,"startTime":1703081562858,"endTime":1703081562858,"millis":0.150069,"status":"passed"},"step":{"background":true,"line":4,"prefix":"Given","index":0,"text":"url baseURL"},"stepLog":"21:12:42.856 karate.env system property was: null \n"},{"result":{"nanos":1151624,"startTime":1703081562858,"endTime":1703081562859,"millis":1.151624,"status":"passed"},"step":{"background":true,"line":5,"prefix":"And","index":1,"text":"print \"========= Ini test Get Data ========\""},"stepLog":"21:12:42.859 [print] ========= Ini test Get Data ======== \n"},{"result":{"nanos":16933435,"startTime":1703081562859,"endTime":1703081562876,"millis":16.933435,"status":"passed"},"step":{"comments":["# define location schema"],"background":true,"line":7,"prefix":"*","index":2,"text":"string jsonSchemaExpected = read('file:src\/test\/java\/apitest\/schema\/getschema.json')"}},{"result":{"nanos":547093,"startTime":1703081562876,"endTime":1703081562877,"millis":0.547093,"status":"passed"},"step":{"line":11,"prefix":"When","index":0,"text":"path '\/api\/users'"}},{"result":{"nanos":883482,"startTime":1703081562877,"endTime":1703081562878,"millis":0.883482,"status":"passed"},"step":{"line":12,"prefix":"And","index":1,"text":"param page = 1"}},{"result":{"nanos":177182967,"startTime":1703081562878,"endTime":1703081563055,"millis":177.182967,"status":"passed"},"step":{"line":13,"prefix":"And","index":2,"text":"method get"}},{"result":{"nanos":19893,"startTime":1703081563055,"endTime":1703081563055,"millis":0.019893,"status":"passed"},"step":{"line":14,"prefix":"Then","index":3,"text":"status 200"}},{"result":{"nanos":5149491,"startTime":1703081563056,"endTime":1703081563061,"millis":5.149491,"status":"passed"},"step":{"line":15,"prefix":"And","index":4,"text":"print response"},"stepLog":"21:12:43.061 [print] {\n  \"page\": 1,\n  \"per_page\": 6,\n  \"total\": 12,\n  \"total_pages\": 2,\n  \"data\": [\n    {\n      \"id\": 1,\n      \"email\": \"george.bluth@reqres.in\",\n      \"first_name\": \"George\",\n      \"last_name\": \"Bluth\",\n      \"avatar\": \"https:\/\/reqres.in\/img\/faces\/1-image.jpg\"\n    },\n    {\n      \"id\": 2,\n      \"email\": \"janet.weaver@reqres.in\",\n      \"first_name\": \"Janet\",\n      \"last_name\": \"Weaver\",\n      \"avatar\": \"https:\/\/reqres.in\/img\/faces\/2-image.jpg\"\n    },\n    {\n      \"id\": 3,\n      \"email\": \"emma.wong@reqres.in\",\n      \"first_name\": \"Emma\",\n      \"last_name\": \"Wong\",\n      \"avatar\": \"https:\/\/reqres.in\/img\/faces\/3-image.jpg\"\n    },\n    {\n      \"id\": 4,\n      \"email\": \"eve.holt@reqres.in\",\n      \"first_name\": \"Eve\",\n      \"last_name\": \"Holt\",\n      \"avatar\": \"https:\/\/reqres.in\/img\/faces\/4-image.jpg\"\n    },\n    {\n      \"id\": 5,\n      \"email\": \"charles.morris@reqres.in\",\n      \"first_name\": \"Charles\",\n      \"last_name\": \"Morris\",\n      \"avatar\": \"https:\/\/reqres.in\/img\/faces\/5-image.jpg\"\n    },\n    {\n      \"id\": 6,\n      \"email\": \"tracey.ramos@reqres.in\",\n      \"first_name\": \"Tracey\",\n      \"last_name\": \"Ramos\",\n      \"avatar\": \"https:\/\/reqres.in\/img\/faces\/6-image.jpg\"\n    }\n  ],\n  \"support\": {\n    \"url\": \"https:\/\/reqres.in\/#support-heading\",\n    \"text\": \"To keep ReqRes free, contributions towards server costs are appreciated!\"\n  }\n}\n \n"}],"executorName":"main","line":10,"name":"User get list users page 1","description":"","durationMillis":202.018054,"startTime":1703081562855,"failed":false,"refId":"[1:10]","endTime":1703081563061,"exampleIndex":-1},{"sectionIndex":1,"stepResults":[{"result":{"nanos":971777,"startTime":1703081563077,"endTime":1703081563078,"millis":0.971777,"status":"passed"},"step":{"background":true,"line":4,"prefix":"Given","index":0,"text":"url baseURL"},"stepLog":"21:12:43.075 karate.env system property was: null \n"},{"result":{"nanos":1563289,"startTime":1703081563078,"endTime":1703081563080,"millis":1.563289,"status":"passed"},"step":{"background":true,"line":5,"prefix":"And","index":1,"text":"print \"========= Ini test Get Data ========\""},"stepLog":"21:12:43.080 [print] ========= Ini test Get Data ======== \n"},{"result":{"nanos":3156786,"startTime":1703081563080,"endTime":1703081563083,"millis":3.156786,"status":"passed"},"step":{"comments":["# define location schema"],"background":true,"line":7,"prefix":"*","index":2,"text":"string jsonSchemaExpected = read('file:src\/test\/java\/apitest\/schema\/getschema.json')"}},{"result":{"nanos":1339871,"startTime":1703081563084,"endTime":1703081563085,"millis":1.339871,"status":"passed"},"step":{"comments":["# declare variable userid"],"line":20,"prefix":"*","index":0,"text":"def userid = 2"}},{"result":{"nanos":1151757,"startTime":1703081563085,"endTime":1703081563086,"millis":1.151757,"status":"passed"},"step":{"comments":["# path"],"line":23,"prefix":"When","index":1,"text":"path '\/api\/users\/'+userid"}},{"result":{"nanos":212101954,"startTime":1703081563086,"endTime":1703081563298,"millis":212.101954,"status":"passed"},"step":{"comments":["# http request method"],"line":25,"prefix":"And","index":2,"text":"method get"}},{"result":{"nanos":17927,"startTime":1703081563299,"endTime":1703081563299,"millis":0.017927,"status":"passed"},"step":{"comments":["# get status"],"line":27,"prefix":"Then","index":3,"text":"status 200"}},{"result":{"nanos":1709600,"startTime":1703081563299,"endTime":1703081563301,"millis":1.7096,"status":"passed"},"step":{"comments":["# Assertion body response : id"],"line":29,"prefix":"And","index":4,"text":"print response"},"stepLog":"21:12:43.300 [print] {\n  \"data\": {\n    \"id\": 2,\n    \"email\": \"janet.weaver@reqres.in\",\n    \"first_name\": \"Janet\",\n    \"last_name\": \"Weaver\",\n    \"avatar\": \"https:\/\/reqres.in\/img\/faces\/2-image.jpg\"\n  },\n  \"support\": {\n    \"url\": \"https:\/\/reqres.in\/#support-heading\",\n    \"text\": \"To keep ReqRes free, contributions towards server costs are appreciated!\"\n  }\n}\n \n"},{"result":{"nanos":1569061,"startTime":1703081563301,"endTime":1703081563303,"millis":1.569061,"status":"passed"},"step":{"line":30,"prefix":"And","index":5,"text":"assert response.data.id == userid"}},{"result":{"nanos":978711,"startTime":1703081563302,"endTime":1703081563303,"millis":0.978711,"status":"passed"},"step":{"line":31,"prefix":"And","index":6,"text":"assert response.data.first_name == 'Janet'"}},{"result":{"nanos":35179664,"startTime":1703081563304,"endTime":1703081563339,"millis":35.179664,"status":"passed"},"step":{"comments":["# assert data.avatar is not null"],"line":33,"prefix":"And","index":7,"text":"match response.data contains { \"avatar\": '#notnull'}"}},{"result":{"nanos":2186165,"startTime":1703081563339,"endTime":1703081563341,"millis":2.186165,"status":"passed"},"step":{"comments":["# assert jsonschema validation"],"line":35,"prefix":"And","index":8,"text":"match response == '#object'"}},{"result":{"nanos":812669,"startTime":1703081563341,"endTime":1703081563342,"millis":0.812669,"status":"passed"},"step":{"line":36,"prefix":"*","index":9,"text":"string jsonData = response"}},{"result":{"nanos":22063358,"errorMessage":"js failed:\n>>>>\n01: Java.type('plugins.JSONSchemaUtil')\n<<<<\norg.graalvm.polyglot.PolyglotException: TypeError: Access to host class plugins.JSONSchemaUtil is not allowed or does not exist.\n- <js>.:program(Unnamed:1)\n\nclasspath:apitest\/getRequest.feature:38","startTime":1703081563342,"endTime":1703081563364,"millis":22.063358,"status":"failed"},"step":{"comments":["# location file JSONSchemaUtil in folder plugins"],"line":38,"prefix":"*","index":10,"text":"def SchemaUtils = Java.type('plugins.JSONSchemaUtil')"},"stepLog":"21:12:43.370 classpath:apitest\/getRequest.feature:38\n* def SchemaUtils = Java.type('plugins.JSONSchemaUtil')\njs failed:\n>>>>\n01: Java.type('plugins.JSONSchemaUtil')\n<<<<\norg.graalvm.polyglot.PolyglotException: TypeError: Access to host class plugins.JSONSchemaUtil is not allowed or does not exist.\n- <js>.:program(Unnamed:1)\n\nclasspath:apitest\/getRequest.feature:38\n"},{"result":{"nanos":0,"startTime":1703081563370,"endTime":1703081563370,"millis":0.0,"status":"skipped"},"step":{"line":39,"prefix":"*","index":11,"text":"assert SchemaUtils.isValid(jsonData, jsonSchemaExpected)"}}],"line":18,"description":"","durationMillis":284.802589,"failed":true,"error":"js failed:\n>>>>\n01: Java.type('plugins.JSONSchemaUtil')\n<<<<\norg.graalvm.polyglot.PolyglotException: TypeError: Access to host class plugins.JSONSchemaUtil is not allowed or does not exist.\n- <js>.:program(Unnamed:1)\n\nclasspath:apitest\/getRequest.feature:38","tags":["test","get"],"executorName":"main","name":"User get user data using id","startTime":1703081563072,"refId":"[2:18]","endTime":1703081563370,"exampleIndex":-1}],"callDepth":0,"name":"Test get request","description":"","resultDate":"2023-12-20 09:12:43 PM","durationMillis":486.820643,"passedCount":1}