{"failedCount":0,"prefixedPath":"classpath:apitest\/getRequest.feature","packageQualifiedName":"apitest.getRequest","loopIndex":-1,"relativePath":"apitest\/getRequest.feature","scenarioResults":[{"sectionIndex":0,"stepResults":[{"result":{"nanos":346985,"startTime":1702818609975,"endTime":1702818609975,"millis":0.346985,"status":"passed"},"step":{"background":true,"line":4,"prefix":"Given","index":0,"text":"url baseURL"},"stepLog":"20:10:09.971 karate.env system property was: null \n"},{"result":{"nanos":4601304,"startTime":1702818609975,"endTime":1702818609980,"millis":4.601304,"status":"passed"},"step":{"background":true,"line":5,"prefix":"And","index":1,"text":"print \"========= Ini test Get Data ========\""},"stepLog":"20:10:09.980 [print] ========= Ini test Get Data ======== \n"},{"result":{"nanos":24216812,"startTime":1702818609980,"endTime":1702818610004,"millis":24.216812,"status":"passed"},"step":{"comments":["# define location schema"],"background":true,"line":7,"prefix":"*","index":2,"text":"string jsonSchemaExpected = read('file:src\/test\/java\/apitest\/schema\/getschema.json')"}},{"result":{"nanos":403931,"startTime":1702818610005,"endTime":1702818610005,"millis":0.403931,"status":"passed"},"step":{"line":11,"prefix":"When","index":0,"text":"path '\/api\/users'"}},{"result":{"nanos":740819,"startTime":1702818610005,"endTime":1702818610006,"millis":0.740819,"status":"passed"},"step":{"line":12,"prefix":"And","index":1,"text":"param page = 1"}},{"result":{"nanos":609612176,"startTime":1702818610006,"endTime":1702818610616,"millis":609.612176,"status":"passed"},"step":{"line":13,"prefix":"And","index":2,"text":"method get"}},{"result":{"nanos":17207,"startTime":1702818610616,"endTime":1702818610616,"millis":0.017207,"status":"passed"},"step":{"line":14,"prefix":"Then","index":3,"text":"status 200"}},{"result":{"nanos":4418295,"startTime":1702818610616,"endTime":1702818610620,"millis":4.418295,"status":"passed"},"step":{"line":15,"prefix":"And","index":4,"text":"print response"},"stepLog":"20:10:10.620 [print] {\n  \"page\": 1,\n  \"per_page\": 6,\n  \"total\": 12,\n  \"total_pages\": 2,\n  \"data\": [\n    {\n      \"id\": 1,\n      \"email\": \"george.bluth@reqres.in\",\n      \"first_name\": \"George\",\n      \"last_name\": \"Bluth\",\n      \"avatar\": \"https:\/\/reqres.in\/img\/faces\/1-image.jpg\"\n    },\n    {\n      \"id\": 2,\n      \"email\": \"janet.weaver@reqres.in\",\n      \"first_name\": \"Janet\",\n      \"last_name\": \"Weaver\",\n      \"avatar\": \"https:\/\/reqres.in\/img\/faces\/2-image.jpg\"\n    },\n    {\n      \"id\": 3,\n      \"email\": \"emma.wong@reqres.in\",\n      \"first_name\": \"Emma\",\n      \"last_name\": \"Wong\",\n      \"avatar\": \"https:\/\/reqres.in\/img\/faces\/3-image.jpg\"\n    },\n    {\n      \"id\": 4,\n      \"email\": \"eve.holt@reqres.in\",\n      \"first_name\": \"Eve\",\n      \"last_name\": \"Holt\",\n      \"avatar\": \"https:\/\/reqres.in\/img\/faces\/4-image.jpg\"\n    },\n    {\n      \"id\": 5,\n      \"email\": \"charles.morris@reqres.in\",\n      \"first_name\": \"Charles\",\n      \"last_name\": \"Morris\",\n      \"avatar\": \"https:\/\/reqres.in\/img\/faces\/5-image.jpg\"\n    },\n    {\n      \"id\": 6,\n      \"email\": \"tracey.ramos@reqres.in\",\n      \"first_name\": \"Tracey\",\n      \"last_name\": \"Ramos\",\n      \"avatar\": \"https:\/\/reqres.in\/img\/faces\/6-image.jpg\"\n    }\n  ],\n  \"support\": {\n    \"url\": \"https:\/\/reqres.in\/#support-heading\",\n    \"text\": \"To keep ReqRes free, contributions towards server costs are appreciated!\"\n  }\n}\n \n"}],"executorName":"main","line":10,"name":"User get list users page 1","description":"","durationMillis":644.357529,"startTime":1702818609967,"failed":false,"refId":"[1:10]","endTime":1702818610620,"exampleIndex":-1},{"sectionIndex":1,"stepResults":[{"result":{"nanos":350323,"startTime":1702818610635,"endTime":1702818610635,"millis":0.350323,"status":"passed"},"step":{"background":true,"line":4,"prefix":"Given","index":0,"text":"url baseURL"},"stepLog":"20:10:10.633 karate.env system property was: null \n"},{"result":{"nanos":864297,"startTime":1702818610635,"endTime":1702818610636,"millis":0.864297,"status":"passed"},"step":{"background":true,"line":5,"prefix":"And","index":1,"text":"print \"========= Ini test Get Data ========\""},"stepLog":"20:10:10.636 [print] ========= Ini test Get Data ======== \n"},{"result":{"nanos":1974004,"startTime":1702818610636,"endTime":1702818610638,"millis":1.974004,"status":"passed"},"step":{"comments":["# define location schema"],"background":true,"line":7,"prefix":"*","index":2,"text":"string jsonSchemaExpected = read('file:src\/test\/java\/apitest\/schema\/getschema.json')"}},{"result":{"nanos":1228081,"startTime":1702818610639,"endTime":1702818610640,"millis":1.228081,"status":"passed"},"step":{"comments":["# declare variable userid"],"line":20,"prefix":"*","index":0,"text":"def userid = 2"}},{"result":{"nanos":1958475,"startTime":1702818610640,"endTime":1702818610642,"millis":1.958475,"status":"passed"},"step":{"comments":["# path"],"line":23,"prefix":"When","index":1,"text":"path '\/api\/users\/'+userid"}},{"result":{"nanos":30880774917,"startTime":1702818610642,"endTime":1702818641523,"millis":30880.774917,"status":"passed"},"step":{"comments":["# http request method"],"line":25,"prefix":"And","index":2,"text":"method get"}},{"result":{"nanos":8307,"startTime":1702818641523,"endTime":1702818641523,"millis":0.008307,"status":"passed"},"step":{"comments":["# get status"],"line":27,"prefix":"Then","index":3,"text":"status 200"}},{"result":{"nanos":936831,"startTime":1702818641523,"endTime":1702818641524,"millis":0.936831,"status":"passed"},"step":{"comments":["# Assertion body response : id"],"line":29,"prefix":"And","index":4,"text":"print response"},"stepLog":"20:10:41.524 [print] {\n  \"data\": {\n    \"id\": 2,\n    \"email\": \"janet.weaver@reqres.in\",\n    \"first_name\": \"Janet\",\n    \"last_name\": \"Weaver\",\n    \"avatar\": \"https:\/\/reqres.in\/img\/faces\/2-image.jpg\"\n  },\n  \"support\": {\n    \"url\": \"https:\/\/reqres.in\/#support-heading\",\n    \"text\": \"To keep ReqRes free, contributions towards server costs are appreciated!\"\n  }\n}\n \n"},{"result":{"nanos":646651,"startTime":1702818641524,"endTime":1702818641525,"millis":0.646651,"status":"passed"},"step":{"line":30,"prefix":"And","index":5,"text":"assert response.data.id == userid"}},{"result":{"nanos":425493,"startTime":1702818641525,"endTime":1702818641525,"millis":0.425493,"status":"passed"},"step":{"line":31,"prefix":"And","index":6,"text":"assert response.data.first_name == 'Janet'"}},{"result":{"nanos":16967766,"startTime":1702818641525,"endTime":1702818641542,"millis":16.967766,"status":"passed"},"step":{"comments":["# assert data.avatar is not null"],"line":33,"prefix":"And","index":7,"text":"match response.data contains { \"avatar\": '#notnull'}"}},{"result":{"nanos":1843795,"startTime":1702818641543,"endTime":1702818641545,"millis":1.843795,"status":"passed"},"step":{"comments":["# assert jsonschema validation"],"line":35,"prefix":"And","index":8,"text":"match response == '#object'"}},{"result":{"nanos":442078,"startTime":1702818641545,"endTime":1702818641545,"millis":0.442078,"status":"passed"},"step":{"line":36,"prefix":"*","index":9,"text":"string jsonData = response"}},{"result":{"nanos":6465972,"startTime":1702818641545,"endTime":1702818641551,"millis":6.465972,"status":"passed"},"step":{"comments":["# location file JSONSchemaUtil in folder plugins"],"line":38,"prefix":"*","index":10,"text":"def SchemaUtils = Java.type('plugins.JSONSchemaUtil')"}},{"result":{"nanos":222643170,"startTime":1702818641552,"endTime":1702818641775,"millis":222.64317,"status":"passed"},"step":{"line":39,"prefix":"*","index":11,"text":"assert SchemaUtils.isValid(jsonData, jsonSchemaExpected)"}}],"line":18,"description":"","durationMillis":31137.53016,"failed":false,"tags":["test","get"],"executorName":"main","name":"User get user data using id","startTime":1702818610631,"refId":"[2:18]","endTime":1702818641774,"exampleIndex":-1}],"callDepth":0,"name":"Test get request","description":"","resultDate":"2023-12-17 08:10:41 PM","durationMillis":31781.887689,"passedCount":2}