{"failedCount":0,"prefixedPath":"classpath:apitest\/getRequest.feature","packageQualifiedName":"apitest.getRequest","loopIndex":-1,"relativePath":"apitest\/getRequest.feature","scenarioResults":[{"sectionIndex":0,"stepResults":[{"result":{"nanos":330791,"startTime":1702819114130,"endTime":1702819114130,"millis":0.330791,"status":"passed"},"step":{"background":true,"line":4,"prefix":"Given","index":0,"text":"url baseURL"},"stepLog":"20:18:34.128 karate.env system property was: null \n"},{"result":{"nanos":892311,"startTime":1702819114130,"endTime":1702819114131,"millis":0.892311,"status":"passed"},"step":{"background":true,"line":5,"prefix":"And","index":1,"text":"print \"========= Ini test Get Data ========\""},"stepLog":"20:18:34.131 [print] ========= Ini test Get Data ======== \n"},{"result":{"nanos":17579582,"startTime":1702819114131,"endTime":1702819114149,"millis":17.579582,"status":"passed"},"step":{"comments":["# define location schema"],"background":true,"line":7,"prefix":"*","index":2,"text":"string jsonSchemaExpected = read('file:src\/test\/java\/apitest\/schema\/getschema.json')"}},{"result":{"nanos":1054416,"startTime":1702819114149,"endTime":1702819114150,"millis":1.054416,"status":"passed"},"step":{"line":11,"prefix":"When","index":0,"text":"path '\/api\/users'"}},{"result":{"nanos":1351803,"startTime":1702819114150,"endTime":1702819114151,"millis":1.351803,"status":"passed"},"step":{"line":12,"prefix":"And","index":1,"text":"param page = 1"}},{"result":{"nanos":31774464879,"startTime":1702819114152,"endTime":1702819145926,"millis":31774.464879,"status":"passed"},"step":{"line":13,"prefix":"And","index":2,"text":"method get"}},{"result":{"nanos":10547,"startTime":1702819145926,"endTime":1702819145926,"millis":0.010547,"status":"passed"},"step":{"line":14,"prefix":"Then","index":3,"text":"status 200"}},{"result":{"nanos":2331684,"startTime":1702819145926,"endTime":1702819145928,"millis":2.331684,"status":"passed"},"step":{"line":15,"prefix":"And","index":4,"text":"print response"},"stepLog":"20:19:05.929 [print] {\n  \"page\": 1,\n  \"per_page\": 6,\n  \"total\": 12,\n  \"total_pages\": 2,\n  \"data\": [\n    {\n      \"id\": 1,\n      \"email\": \"george.bluth@reqres.in\",\n      \"first_name\": \"George\",\n      \"last_name\": \"Bluth\",\n      \"avatar\": \"https:\/\/reqres.in\/img\/faces\/1-image.jpg\"\n    },\n    {\n      \"id\": 2,\n      \"email\": \"janet.weaver@reqres.in\",\n      \"first_name\": \"Janet\",\n      \"last_name\": \"Weaver\",\n      \"avatar\": \"https:\/\/reqres.in\/img\/faces\/2-image.jpg\"\n    },\n    {\n      \"id\": 3,\n      \"email\": \"emma.wong@reqres.in\",\n      \"first_name\": \"Emma\",\n      \"last_name\": \"Wong\",\n      \"avatar\": \"https:\/\/reqres.in\/img\/faces\/3-image.jpg\"\n    },\n    {\n      \"id\": 4,\n      \"email\": \"eve.holt@reqres.in\",\n      \"first_name\": \"Eve\",\n      \"last_name\": \"Holt\",\n      \"avatar\": \"https:\/\/reqres.in\/img\/faces\/4-image.jpg\"\n    },\n    {\n      \"id\": 5,\n      \"email\": \"charles.morris@reqres.in\",\n      \"first_name\": \"Charles\",\n      \"last_name\": \"Morris\",\n      \"avatar\": \"https:\/\/reqres.in\/img\/faces\/5-image.jpg\"\n    },\n    {\n      \"id\": 6,\n      \"email\": \"tracey.ramos@reqres.in\",\n      \"first_name\": \"Tracey\",\n      \"last_name\": \"Ramos\",\n      \"avatar\": \"https:\/\/reqres.in\/img\/faces\/6-image.jpg\"\n    }\n  ],\n  \"support\": {\n    \"url\": \"https:\/\/reqres.in\/#support-heading\",\n    \"text\": \"To keep ReqRes free, contributions towards server costs are appreciated!\"\n  }\n}\n \n"}],"executorName":"main","line":10,"name":"User get list users page 1","description":"","durationMillis":31798.016013,"startTime":1702819114126,"failed":false,"refId":"[1:10]","endTime":1702819145929,"exampleIndex":-1},{"sectionIndex":1,"stepResults":[{"result":{"nanos":173759,"startTime":1702819145935,"endTime":1702819145935,"millis":0.173759,"status":"passed"},"step":{"background":true,"line":4,"prefix":"Given","index":0,"text":"url baseURL"},"stepLog":"20:19:05.934 karate.env system property was: null \n"},{"result":{"nanos":357016,"startTime":1702819145935,"endTime":1702819145935,"millis":0.357016,"status":"passed"},"step":{"background":true,"line":5,"prefix":"And","index":1,"text":"print \"========= Ini test Get Data ========\""},"stepLog":"20:19:05.936 [print] ========= Ini test Get Data ======== \n"},{"result":{"nanos":850345,"startTime":1702819145936,"endTime":1702819145937,"millis":0.850345,"status":"passed"},"step":{"comments":["# define location schema"],"background":true,"line":7,"prefix":"*","index":2,"text":"string jsonSchemaExpected = read('file:src\/test\/java\/apitest\/schema\/getschema.json')"}},{"result":{"nanos":564276,"startTime":1702819145937,"endTime":1702819145938,"millis":0.564276,"status":"passed"},"step":{"comments":["# declare variable userid"],"line":20,"prefix":"*","index":0,"text":"def userid = 2"}},{"result":{"nanos":430042,"startTime":1702819145937,"endTime":1702819145937,"millis":0.430042,"status":"passed"},"step":{"comments":["# path"],"line":23,"prefix":"When","index":1,"text":"path '\/api\/users\/'+userid"}},{"result":{"nanos":4014646305,"startTime":1702819145938,"endTime":1702819149953,"millis":4014.646305,"status":"passed"},"step":{"comments":["# http request method"],"line":25,"prefix":"And","index":2,"text":"method get"}},{"result":{"nanos":39813,"startTime":1702819149953,"endTime":1702819149953,"millis":0.039813,"status":"passed"},"step":{"comments":["# get status"],"line":27,"prefix":"Then","index":3,"text":"status 200"}},{"result":{"nanos":1934759,"startTime":1702819149953,"endTime":1702819149955,"millis":1.934759,"status":"passed"},"step":{"comments":["# Assertion body response : id"],"line":29,"prefix":"And","index":4,"text":"print response"},"stepLog":"20:19:09.955 [print] {\n  \"data\": {\n    \"id\": 2,\n    \"email\": \"janet.weaver@reqres.in\",\n    \"first_name\": \"Janet\",\n    \"last_name\": \"Weaver\",\n    \"avatar\": \"https:\/\/reqres.in\/img\/faces\/2-image.jpg\"\n  },\n  \"support\": {\n    \"url\": \"https:\/\/reqres.in\/#support-heading\",\n    \"text\": \"To keep ReqRes free, contributions towards server costs are appreciated!\"\n  }\n}\n \n"},{"result":{"nanos":1543152,"startTime":1702819149955,"endTime":1702819149957,"millis":1.543152,"status":"passed"},"step":{"line":30,"prefix":"And","index":5,"text":"assert response.data.id == userid"}},{"result":{"nanos":860529,"startTime":1702819149957,"endTime":1702819149958,"millis":0.860529,"status":"passed"},"step":{"line":31,"prefix":"And","index":6,"text":"assert response.data.first_name == 'Janet'"}},{"result":{"nanos":16711534,"startTime":1702819149958,"endTime":1702819149975,"millis":16.711534,"status":"passed"},"step":{"comments":["# assert data.avatar is not null"],"line":33,"prefix":"And","index":7,"text":"match response.data contains { \"avatar\": '#notnull'}"}},{"result":{"nanos":939041,"startTime":1702819149974,"endTime":1702819149975,"millis":0.939041,"status":"passed"},"step":{"comments":["# assert jsonschema validation"],"line":35,"prefix":"And","index":8,"text":"match response == '#object'"}},{"result":{"nanos":394976,"startTime":1702819149975,"endTime":1702819149975,"millis":0.394976,"status":"passed"},"step":{"line":36,"prefix":"*","index":9,"text":"string jsonData = response"}},{"result":{"nanos":2834158,"startTime":1702819149976,"endTime":1702819149979,"millis":2.834158,"status":"passed"},"step":{"comments":["# location file JSONSchemaUtil in folder plugins"],"line":38,"prefix":"*","index":10,"text":"def SchemaUtils = Java.type('plugins.JSONSchemaUtil')"}},{"result":{"nanos":210139169,"startTime":1702819149979,"endTime":1702819150189,"millis":210.139169,"status":"passed"},"step":{"line":39,"prefix":"*","index":11,"text":"assert SchemaUtils.isValid(jsonData, jsonSchemaExpected)"}}],"line":18,"description":"","durationMillis":4252.418874,"failed":false,"tags":["test","get"],"executorName":"main","name":"User get user data using id","startTime":1702819145934,"refId":"[2:18]","endTime":1702819150189,"exampleIndex":-1}],"callDepth":0,"name":"Test get request","description":"","resultDate":"2023-12-17 08:19:10 PM","durationMillis":36050.434887,"passedCount":2}